…
tree_res <- 
  tree_wf %>% 
  tune_grid(
    resamples = tree_folds,
    grid = tree_grid
    )

tree_res %>%
  collect_metrics() %>%
  filter(.metric == "rmse")
```

    ## # A tibble: 25 x 8
    ##    cost_complexity tree_depth .metric .estimator  mean     n std_err .config    
    ##              <dbl>      <int> <chr>   <chr>      <dbl> <int>   <dbl> <chr>      
    ##  1    0.0000000001          1 rmse    standard   4043.    10    104. Preprocess…
    ##  2    0.0000000178          1 rmse    standard   4043.    10    104. Preprocess…
    ##  3    0.00000316            1 rmse    standard   4043.    10    104. Preprocess…
    ##  4    0.000562              1 rmse    standard   4043.    10    104. Preprocess…
    ##  5    0.1                   1 rmse    standard   4043.    10    104. Preprocess…
    ##  6    0.0000000001          4 rmse    standard   3569.    10    134. Preprocess…
    ##  7    0.0000000178          4 rmse    standard   3569.    10    134. Preprocess…
    ##  8    0.00000316            4 rmse    standard   3569.    10    134. Preprocess…
    ##  9    0.000562              4 rmse    standard   3569.    10    134. Preprocess…
    ## 10    0.1                   4 rmse    standard   4043.    10    104. Preprocess…
    ## # … with 15 more rows
…
